Summary of RNA-seq data cleaning
…
Total reads in genes were quantified using SUBREAD featureCounts. Only reads in exons of known genes were counted.

Results can be found in data_raw/counts

For example:

featureCounts -T 14 -g gene_id -t exon -p \
  -a Mus_musculus.GRCm38.99.gtf \
  -o Shah.featurecounts.paired.tsv \
  bam_filter_paired/*filter_paired.bam

Counts were further formatted using scripts/RNAseq_counts_formatting.R to results in data_clean/Shah.counts.clean.csv

## # A tibble: 55,471 x 17
##    geneName  Lu01  Lu02  Lu03  Lu04  Lu05  Lu06  Lu07  Lu08  Lu09  Lu10  Lu11
##    <chr>    <dbl> <dbl> <dbl> <dbl> <dbl> <dbl> <dbl> <dbl> <dbl> <dbl> <dbl>
##  1 ENSMUSG     0     0     0     0     0     0     0     0     0     0     0
##  2 ENSMUSG     0     0     0     0     0     0     0     0     0     0     0
##  3 ENSMUSG     0     0     0     0     0     0     0     0     0     0     0
##  4 ENSMUSG     0     0     0     0     0     0     0     0     0     0     0
##  5 ENSMUSG     0     0     0     0     0     0     0     0     0     0     0
##  6 ENSMUSG     1     0     0     0     0     0     0     0     0     0     0
##  7 ENSMUSG     0     0     0     0     0     0     0     0     0     0     0
##  8 ENSMUSG     0     0     0     0     0     0     0     0     0     0     0
##  9 ENSMUSG     0     0     0     0     0     0     0     0     0     0     0
## 10 ENSMUSG     1     0     1     1     1     0     0     0     0     0     0
## #  with 55,461 more rows, and 5 more variables: Lu12 <dbl>, Lu13 <dbl>,
## #   Lu14 <dbl>, Lu15 <dbl>, Lu16 <dbl>
…
